{
    "cz": {
        "modalWindowDescription": "Modální okno pro tvorbu nového úkolu",
        "addTaskButton": "Potvrdit",
        "createNewTaskButton": "Vytvořit nový úkol",
        "completeTaskButton": "Dokončit",
        "openTaskButton": "Otevřít",
        "deleteCompletedTasksLabel": "Smazat dokončené",
        "newTaskModalTitle": "Nový úkol",
        "newTaskNameLabel": "Jméno",
        "confirmTaskEditButton": "Potvrdit",
        "tasksTitle": "Úkoly",
        "errorTaskNameTooShort": "Jméno je příliš krátké"
    },
    "engb": {
        "modalWindowDescription": "Create new task modal window",
        "addTaskButton": "Confirm",
        "createNewTaskButton": "Create new task",
        "completeTaskButton": "Mark done",
        "openTaskButton": "Mark open",
        "deleteCompletedTasksLabel": "Delete done",
        "newTaskModalTitle": "Nový úkol",
        "newTaskNameLabel": "Name",
        "confirmTaskEditButton": "Confirm",
        "tasksTitle": "Tasks",
        "errorTaskNameTooShort": "Name is too short"
    }
}